STAT 413/613 Homework on Web Data: APIs and Scraping
…
# get winning movie list--93titles
best_win_mv_elements <- html_nodes(html_obj,
                       css = ".lister-item-header a , .certificate")
mv_text <- html_text(best_win_mv_elements)
tibble(text = mv_text) %>% 
  mutate(rownum = row_number(),
         iseven = rownum %% 2 == 0,
         movie_title = rep(1:93, each = 2)) %>% 
  select(-rownum) %>% 
  pivot_wider(names_from = iseven, values_from = text) %>% 
  select(-movie_title, "mv_title" = "FALSE", "mpaa" = "TRUE") ->mv_list
mv_list

## # A tibble: 93 x 2
##    mv_title                                        mpaa 
##    <chr>                                           <chr>
##  1 Parasite                                        R    
##  2 Green Book                                      PG-13
##  3 The Shape of Water                              R    
##  4 Moonlight                                       R    
##  5 Spotlight                                       R    
##  6 Birdman or (The Unexpected Virtue of Ignorance) R    
##  7 12 Years a Slave                                R    
##  8 Argo                                            R    
##  9 The Artist                                      PG-13
## 10 The King's Speech                               R    
## #  with 83 more rows
…
# clean
best_win_wide %>% 
  mutate(genre = str_replace_all(genre, "\\n", ""),
         genre = str_squish(genre),
         numbr = parse_number(numbr),
         year = parse_number(year),
         length_m = parse_number(length_m),
         star = parse_number(star),
         metascore = parse_number(metascore),
         gross = parse_number(gross),
         movienum = NULL) ->best_win_wide
best_win_wide

## # A tibble: 93 x 9
##    numbr title              year MPAA  length_m genre       star metascore gross
##    <dbl> <chr>             <dbl> <chr>    <dbl> <chr>      <dbl>     <dbl> <dbl>
##  1     1 Parasite           2019 R          132 Comedy, D   8.6        96  53.4
##  2     2 Green Book         2018 PG-13      130 Biography   8.2        69  85.1
##  3     3 The Shape of Wat  2017 R          123 Adventure   7.3        87  63.9
##  4     4 Moonlight          2016 R          111 Drama        7.4        99  27.8
##  5     5 Spotlight          2015 R          129 Biography   8.1        93  45.1
##  6     6 Birdman or (The   2014 R          119 Comedy, D   7.7        87  42.3
##  7     7 12 Years a Slave   2013 R          134 Biography   8.1        96  56.7
##  8     8 Argo               2012 R          120 Biography   7.7        86 136. 
##  9     9 The Artist         2011 PG-13      100 Comedy, D   7.9        89  44.7
## 10    10 The King's Speech  2010 R          118 Biography   8          88 139. 
## #  with 83 more rows
…
